{
  "name": "GlobalReplayViewer",
  "type": "project:application",
  "bundler": {
    "id": "webpack",
    "displayName": "Webpack"
  },
  "build": {
    "options": {
      "server": "dev",
      "extractCss": "prod",
      "coverage": false
    }
  },
  "platform": {
    "id": "web",
    "displayName": "Web",
    "hmr": false,
    "open": false,
    "port": 8080,
    "output": "dist"
  },
  "loader": {
    "id": "none",
    "displayName": "None"
  },
  "transpiler": {
    "id": "babel",
    "displayName": "Babel",
    "fileExtension": ".js",
    "options": {
      "plugins": [
        "transform-es2015-modules-amd"
      ]
    }
  },
  "markupProcessor": {
    "id": "minimum",
    "displayName": "Minimal Minification",
    "fileExtension": ".html"
  },
  "cssProcessor": {
    "id": "sass",
    "displayName": "Sass",
    "fileExtension": ".scss"
  },
  "editor": {
    "id": "vscode",
    "displayName": "Visual Studio Code"
  },
  "unitTestRunners": [
    {
      "id": "none",
      "displayName": "None"
    }
  ],
  "integrationTestRunner": {
    "id": "none",
    "displayName": "None"
  },
  "paths": {
    "root": "src",
    "resources": "resources",
    "elements": "resources/elements",
    "attributes": "resources/attributes",
    "valueConverters": "resources/value-converters",
    "bindingBehaviors": "resources/binding-behaviors"
  },
  "packageManager": "yarn"
}